{
  "project_info": {
    "project_number": "978506453095",
    "firebase_url": "https://prueba-8d3fe.firebaseio.com",
    "project_id": "prueba-8d3fe",
    "storage_bucket": "prueba-8d3fe.appspot.com"
  },
  "client": [
    {
      "client_info": {
        "mobilesdk_app_id": "1:978506453095:android:c46cb3701eb26261a6c4c2",
        "android_client_info": {
          "package_name": "com.realityevo.prueba"
        }
      },
      "oauth_client": [
        {
          "client_id": "978506453095-nup8ki91gojv8ejl5bofcj56uc8ns2j9.apps.googleusercontent.com",
          "client_type": 3
        }
      ],
      "api_key": [
        {
          "current_key": "AIzaSyAzKjs24n-RTcvLJzqzpx1_YMRtkBt_-Vg"
        }
      ],
      "services": {
        "appinvite_service": {
          "other_platform_oauth_client": [
            {
              "client_id": "978506453095-nup8ki91gojv8ejl5bofcj56uc8ns2j9.apps.googleusercontent.com",
              "client_type": 3
            }
          ]
        }
      }
    }
  ],
  "configuration_version": "1"
}